[
	{ "type": "customerPortal",
	"id": "5b41864c-0879-43d9-8a70-2a869c05485a",
	"description": "Group for Customer self service web site",
	"size": "LARGE",
	"numHosts": 10,
	"eager" : true,
	"dependsOn" : [ "322e97ac-9fd3-45bd-9515-7218bf192cbb" ]
	},
	{ "type": "authService",
	"id": "322e97ac-9fd3-45bd-9515-7218bf192cbb",
	"description": "Group for Account authentication service",
	"size": "MEDIUM",
	"numHosts": 5,
	"eager" : true,
	"dependsOn" : ["2dc95bc5-82bf-4fda-972a-4a147372519c"]
	},
	{ "type": "userDBEngine",
	"id": "2dc95bc5-82bf-4fda-972a-4a147372519c",
	"description": "Group for Stores customer credentials",
	"size": "SMALL",
	"numHosts": 3,
	"eager" : true,
	"dependsOn" : [""]
	},
	{ "type": "phoneService",
	"id": "10e1be1c-edc5-44e2-8825-73a27216981d",
	"description": "Group for Enables customers to make calls",
	"size": "LARGE",
	"numHosts": 15,
	"eager" : false,
	"dependsOn" : ["322e97ac-9fd3-45bd-9515-7218bf192cbb", "b72d4270-de66-41d5-aac9-f4319de032ee"]
	},
	{ "type": "carrierService",
	"id": "b72d4270-de66-41d5-aac9-f4319de032ee",
	"description": "Group for Enables phoneService to communicate with Carriers",
	"size": "LARGE",
	"numHosts": 3,
	"eager" : true,
	"dependsOn" : [""]
	}
]